250,Crout5,0.006064
500,Crout1,0.039752
250,Banachiewicz,0.003155
500,Crout3,0.034365
250,Crout4,0.003563
2500,Crout4,2.685313
1000,Crout1,0.202715
250,Crout1,0.006471
1000,Crout2,0.220590
7500,Crout2,76.585982
1000,Crout5,0.291906
5000,Crout2,21.944437
2500,Crout1,2.703553
1000,Crout3,0.265850
500,Banachiewicz,0.038949
2500,Crout5,4.497881
1000,Crout4,0.201818
7500,Crout4,75.972865
2500,Banachiewicz,2.647337
1000,Banachiewicz,0.169383
250,Crout3,0.002539
5000,Crout4,21.685355
500,Crout5,0.039579
2500,Crout2,2.640465
2500,Crout3,4.249187
500,Crout2,0.034487
250,Crout2,0.006055
500,Crout4,0.027045
2500,Crout3,4.383444
1000,Crout2,0.172257
2500,Banachiewicz,2.647916
2500,Crout5,4.355493
250,Crout3,0.006711
500,Crout4,0.029135
250,Crout2,0.006354
5000,Crout2,21.854570
250,Crout4,0.006572
250,Crout5,0.003845
7500,Crout4,75.808917
500,Crout3,0.036186
1000,Crout4,0.203422
1000,Crout1,0.205219
7500,Crout2,76.471644
500,Crout2,0.037769
1000,Crout3,0.307213
250,Banachiewicz,0.003513
500,Crout5,0.029881
250,Crout1,0.006254
2500,Crout4,2.673129
1000,Crout5,0.278423
2500,Crout1,2.699931
500,Banachiewicz,0.029693
1000,Banachiewicz,0.184481
500,Crout1,0.037533
5000,Crout4,21.651559
2500,Crout2,2.669060
250,Crout1,0.006255
2500,Banachiewicz,2.652282
7500,Crout4,75.977249
1000,Banachiewicz,0.198629
500,Banachiewicz,0.027727
500,Crout4,0.025666
1000,Crout3,0.296331
5000,Crout2,21.928115
5000,Crout4,21.659848
500,Crout5,0.037441
1000,Crout4,0.183222
250,Banachiewicz,0.006457
2500,Crout4,2.622129
2500,Crout1,2.707008
250,Crout3,0.006031
2500,Crout3,4.378848
250,Crout4,0.006307
250,Crout2,0.006564
1000,Crout2,0.211878
250,Crout5,0.006354
2500,Crout5,4.431981
500,Crout3,0.040396
1000,Crout5,0.284338
2500,Crout2,2.646900
7500,Crout2,76.588384
500,Crout2,0.034314
500,Crout1,0.033129
1000,Crout1,0.213011
250,Crout2,0.002450
1000,Crout4,0.172717
250,Crout1,0.006438
250,Banachiewicz,0.006460
1000,Crout1,0.220208
5000,Crout4,21.648792
7500,Crout2,76.425887
1000,Crout5,0.249697
2500,Crout1,2.674625
250,Crout5,0.002527
250,Crout4,0.006516
2500,Crout2,2.657807
500,Crout5,0.036622
1000,Crout3,0.266820
500,Crout3,0.039970
2500,Banachiewicz,2.722975
2500,Crout3,4.403842
1000,Banachiewicz,0.171345
500,Crout4,0.035545
500,Crout2,0.033095
500,Banachiewicz,0.031434
7500,Crout4,75.915476
500,Crout1,0.032471
5000,Crout2,21.927423
2500,Crout4,2.640043
250,Crout3,0.002558
1000,Crout2,0.174933
2500,Crout5,4.234929
500,Crout3,0.047106
1000,Banachiewicz,0.200781
2500,Crout1,2.691877
2500,Banachiewicz,2.652764
250,Crout5,0.007046
250,Crout4,0.006539
2500,Crout5,4.357409
500,Crout5,0.037605
250,Crout3,0.006740
500,Crout1,0.029409
1000,Crout4,0.170668
500,Banachiewicz,0.025479
500,Crout2,0.028460
2500,Crout2,2.673512
7500,Crout2,76.547765
500,Crout4,0.030556
250,Banachiewicz,0.003236
5000,Crout4,21.685780
1000,Crout5,0.293471
1000,Crout1,0.203521
2500,Crout4,2.623602
250,Crout1,0.005896
250,Crout2,0.006163
7500,Crout4,75.831847
1000,Crout3,0.275765
2500,Crout3,4.476485
5000,Crout2,21.896478
1000,Crout2,0.199404
2500,Banachiewicz,2.646085
500,Crout5,0.035642
2500,Crout3,4.368611
2500,Crout4,2.654976
500,Crout1,0.028442
500,Crout2,0.028389
2500,Crout2,2.676234
1000,Crout1,0.205702
1000,Crout5,0.254147
500,Crout3,0.039490
250,Crout3,0.006780
250,Crout2,0.005602
1000,Crout3,0.302363
1000,Banachiewicz,0.208522
250,Crout5,0.003425
500,Crout4,0.026709
250,Crout4,0.005389
2500,Crout1,2.701714
7500,Crout2,76.555273
250,Crout1,0.003392
500,Banachiewicz,0.027304
1000,Crout2,0.174685
1000,Crout4,0.169066
5000,Crout2,21.945569
2500,Crout5,4.277692
250,Banachiewicz,0.006460
7500,Crout4,75.792718
5000,Crout4,21.638058
2500,Crout4,2.651702
500,Crout4,0.024823
250,Banachiewicz,0.005943
500,Crout2,0.027163
2500,Crout3,4.379395
5000,Crout4,21.618362
1000,Crout1,0.205287
250,Crout5,0.006797
250,Crout2,0.004372
2500,Crout2,2.641334
1000,Banachiewicz,0.191403
1000,Crout4,0.171039
500,Crout5,0.026202
250,Crout1,0.006418
7500,Crout2,76.410909
500,Crout1,0.021786
2500,Crout5,4.399901
1000,Crout5,0.249123
5000,Crout2,21.910063
500,Banachiewicz,0.032954
1000,Crout3,0.269451
7500,Crout4,76.031018
2500,Crout1,2.691195
500,Crout3,0.026238
1000,Crout2,0.173394
250,Crout4,0.002330
2500,Banachiewicz,2.649239
250,Crout3,0.007001
500,Crout3,0.037301
250,Crout5,0.003326
2500,Banachiewicz,2.687587
250,Crout1,0.006420
2500,Crout2,2.689594
5000,Crout2,21.864761
7500,Crout2,76.614829
7500,Crout4,76.014633
2500,Crout5,4.435729
250,Crout4,0.002342
500,Banachiewicz,0.027137
500,Crout5,0.028933
2500,Crout3,4.500135
5000,Crout4,21.611221
250,Banachiewicz,0.005956
1000,Crout4,0.211300
250,Crout2,0.006421
500,Crout1,0.024381
1000,Banachiewicz,0.171608
500,Crout4,0.022423
1000,Crout2,0.173400
2500,Crout1,2.679689
500,Crout2,0.033067
250,Crout3,0.007200
1000,Crout5,0.273764
1000,Crout3,0.278760
2500,Crout4,2.657233
1000,Crout1,0.191620
250,Crout4,0.005851
7500,Crout2,76.440813
2500,Crout2,2.640758
250,Crout5,0.006056
1000,Banachiewicz,0.203028
1000,Crout4,0.169723
2500,Crout3,4.244174
1000,Crout2,0.195756
7500,Crout4,76.257545
2500,Crout4,2.623782
2500,Crout5,4.362570
500,Crout5,0.038117
1000,Crout3,0.248549
500,Crout2,0.022273
250,Crout1,0.006193
500,Crout1,0.035620
500,Crout3,0.043348
250,Crout3,0.006820
250,Banachiewicz,0.006218
5000,Crout2,21.826925
500,Crout4,0.034193
2500,Crout1,2.697347
250,Crout2,0.006384
500,Banachiewicz,0.039036
1000,Crout5,0.270801
1000,Crout1,0.200501
2500,Banachiewicz,2.648698
5000,Crout4,21.597347
1000,Crout4,0.194345
1000,Crout5,0.245952
500,Crout4,0.032461
250,Banachiewicz,0.005549
5000,Crout2,21.910581
250,Crout3,0.006214
2500,Crout5,4.331271
2500,Crout3,4.517639
7500,Crout2,76.518914
2500,Crout4,2.623568
250,Crout5,0.006307
5000,Crout4,21.713067
250,Crout1,0.005945
1000,Crout2,0.207884
7500,Crout4,75.668079
1000,Crout1,0.172257
250,Crout2,0.002457
500,Crout1,0.033661
500,Crout5,0.038339
1000,Banachiewicz,0.223766
500,Banachiewicz,0.025113
250,Crout4,0.003520
1000,Crout3,0.310775
2500,Crout2,2.700464
2500,Banachiewicz,2.672318
500,Crout2,0.033433
2500,Crout1,2.711352
500,Crout3,0.025558
